Madaraka_Day_Speech_Analysis
…
Further Text Analysis

Using unnest_tokens(), we convert the data into tidy format, remove the punctuation and converts the words into lower case

For all the files;

Speech_tidy = Speech_DF %>%
  unnest_tokens(word, text) %>% 
  anti_join(stop_words) %>% count(word,sort = T)

## Joining, by = "word"

Speech_tidy

## # A tibble: 1,684 x 2
##    word             n
##    <chr>        <int>
##  1 kenya           43
##  2 kenyans         40
##  3 national        39
##  4 fathers         36
##  5 founding        36
##  6 kisumu          29
##  7 nation          28
##  8 fellow          27
##  9 day             25
## 10 constitution    23
## # ... with 1,674 more rows

For individual files;

Speech_2020_tidy = Speech_2020_DF %>%
  unnest_tokens(word, text) %>% 
  anti_join(stop_words) %>% count(word,sort = T)

## Joining, by = "word"

Speech_2020_tidy

## # A tibble: 922 x 2
##    word             n
##    <chr>        <int>
##  1 nation          23
##  2 founding        21
##  3 fathers         20
##  4 kenya           20
##  5 dream           18
##  6 kenyans         18
##  7 constitution    17
##  8 fellow          11
##  9 moment          10
## 10 railway         10
## # ... with 912 more rows

Speech_2021_tidy = Speech_2021_DF %>%
  unnest_tokens(word, text) %>% 
  anti_join(stop_words) %>% count(word,sort = T)

## Joining, by = "word"

Speech_2021_tidy

## # A tibble: 1,052 x 2
##    word         n
##    <chr>    <int>
##  1 national    31
##  2 kisumu      28
##  3 kenya       23
##  4 kenyans     22
##  5 day         16
##  6 fathers     16
##  7 fellow      16
##  8 burden      15
##  9 founding    15
## 10 port        15
## # ... with 1,042 more rows

Removing numbers from the data.

We remove numbers which may make the analysis meaningless.

For all the files;

Speech_no = Speech_tidy[-grep("^[0-9]+", Speech_tidy$word),]
Speech_no

## # A tibble: 1,585 x 2
##    word             n
##    <chr>        <int>
##  1 kenya           43
##  2 kenyans         40
##  3 national        39
##  4 fathers         36
##  5 founding        36
##  6 kisumu          29
##  7 nation          28
##  8 fellow          27
##  9 day             25
## 10 constitution    23
## # ... with 1,575 more rows

For the individual files;

Speech_2020_no = Speech_2020_tidy[-grep("^[0-9]+", Speech_2020_tidy$word),]
Speech_2020_no

## # A tibble: 871 x 2
##    word             n
##    <chr>        <int>
##  1 nation          23
##  2 founding        21
##  3 fathers         20
##  4 kenya           20
##  5 dream           18
##  6 kenyans         18
##  7 constitution    17
##  8 fellow          11
##  9 moment          10
## 10 railway         10
## # ... with 861 more rows

Speech_2021_no = Speech_2021_tidy[-grep("^[0-9]+", Speech_2021_tidy$word),]
Speech_2021_no

## # A tibble: 988 x 2
##    word         n
##    <chr>    <int>
##  1 national    31
##  2 kisumu      28
##  3 kenya       23
##  4 kenyans     22
##  5 day         16
##  6 fathers     16
##  7 fellow      16
##  8 burden      15
##  9 founding    15
## 10 port        15
## # ... with 978 more rows
Analyzing the 2020 and 2021 speeches.

We analyze both the 2020 and 2021 speeches individualy, convert it to a tibble, remove the stopwords and numbers to get it ready for visualization.

2020 Speech

Speech_2020_rem = Speech_2020 %>% tibble() %>%
  unnest_tokens(word, text) %>% 
  anti_join(stop_words) %>% count(word,sort = T)

## Joining, by = "word"

Speech_2020_rem

## # A tibble: 922 x 2
##    word             n
##    <chr>        <int>
##  1 nation          23
##  2 founding        21
##  3 fathers         20
##  4 kenya           20
##  5 dream           18
##  6 kenyans         18
##  7 constitution    17
##  8 fellow          11
##  9 moment          10
## 10 railway         10
## # ... with 912 more rows

Speech_2020_Ready = Speech_2020_rem[-grep("^[0-9]+", Speech_2020_rem$word),] %>% filter(word != "page")
Speech_2020_Ready

## # A tibble: 871 x 2
##    word             n
##    <chr>        <int>
##  1 nation          23
##  2 founding        21
##  3 fathers         20
##  4 kenya           20
##  5 dream           18
##  6 kenyans         18
##  7 constitution    17
##  8 fellow          11
##  9 moment          10
## 10 railway         10
## # ... with 861 more rows

2021 Speech

Speech_2021_rem = Speech_2021 %>% tibble() %>% 
  unnest_tokens(word, text) %>% 
  anti_join(stop_words) %>% group_by(doc_id) %>% count(word,sort = T)

## Joining, by = "word"

Speech_2021_rem

## # A tibble: 1,052 x 3
## # Groups:   doc_id [1]
##    doc_id   word         n
##    <chr>    <chr>    <int>
##  1 2021.txt national    31
##  2 2021.txt kisumu      28
##  3 2021.txt kenya       23
##  4 2021.txt kenyans     22
##  5 2021.txt day         16
##  6 2021.txt fathers     16
##  7 2021.txt fellow      16
##  8 2021.txt burden      15
##  9 2021.txt founding    15
## 10 2021.txt port        15
## # ... with 1,042 more rows

Speech_2021_Ready = Speech_2021_rem[-grep("^[0-9]+", Speech_2021_rem$word),] %>% filter(word != "page")
Speech_2021_Ready

## # A tibble: 988 x 3
## # Groups:   doc_id [1]
##    doc_id   word         n
##    <chr>    <chr>    <int>
##  1 2021.txt national    31
##  2 2021.txt kisumu      28
##  3 2021.txt kenya       23
##  4 2021.txt kenyans     22
##  5 2021.txt day         16
##  6 2021.txt fathers     16
##  7 2021.txt fellow      16
##  8 2021.txt burden      15
##  9 2021.txt founding    15
## 10 2021.txt port        15
## # ... with 978 more rows
…
5: Term frequency and inverse document frequency (tf-idf)

tf-idf checks how important a word is to a document in a collection of documents. We check the words in the two files. Hence we use the Speech file.

Madaraka_Speech = Speech %>% tibble() %>% 
  unnest_tokens(word, text) %>% count(doc_id,word,sort = T)
Madaraka_Speech

## # A tibble: 2,490 x 3
##    doc_id   word      n
##    <chr>    <chr> <int>
##  1 2021.txt the     348
##  2 2020.txt the     238
##  3 2021.txt of      216
##  4 2021.txt to      172
##  5 2020.txt of      147
##  6 2020.txt to      139
##  7 2020.txt and     132
##  8 2021.txt and     126
##  9 2021.txt is       96
## 10 2021.txt in       92
## # ... with 2,480 more rows

Madaraka_Speech_DF = tibble(line =1,text = Madaraka_Speech)

Madaraka_Speech_no = Madaraka_Speech %>% anti_join(stop_words)

## Joining, by = "word"

Madaraka_Speech_no

## # A tibble: 1,974 x 3
##    doc_id   word         n
##    <chr>    <chr>    <int>
##  1 2021.txt national    31
##  2 2021.txt kisumu      28
##  3 2020.txt nation      23
##  4 2021.txt kenya       23
##  5 2021.txt kenyans     22
##  6 2020.txt founding    21
##  7 2020.txt fathers     20
##  8 2020.txt kenya       20
##  9 2020.txt dream       18
## 10 2020.txt kenyans     18
## # ... with 1,964 more rows

The data shows there are some words that occur repeatedly in the text and may not be meaningful in the analysis. Hence we have to define the words and remove them and the numbers in the data.

meaningless_words = tibble(word = c("kenya","fathers", "ksh", "founding", "kenyans", "fellow", "day", "nation", "national"))
Madaraka_Speech_rem = Madaraka_Speech_no %>% anti_join(meaningless_words)

## Joining, by = "word"

Madaraka_Speech_rem

## # A tibble: 1,956 x 3
##    doc_id   word             n
##    <chr>    <chr>        <int>
##  1 2021.txt kisumu          28
##  2 2020.txt dream           18
##  3 2020.txt constitution    17
##  4 2021.txt burden          15
##  5 2021.txt port            15
##  6 2021.txt economic        14
##  7 2021.txt freedom         14
##  8 2021.txt people          14
##  9 2021.txt choice          13
## 10 2021.txt dignity         13
## # ... with 1,946 more rows

Madaraka_Speech_tidy = Madaraka_Speech_rem[-grep("^[0-9]+", Madaraka_Speech_rem$word),] %>% filter(word != "page")
Madaraka_Speech_tidy

## # A tibble: 1,841 x 3
##    doc_id   word             n
##    <chr>    <chr>        <int>
##  1 2021.txt kisumu          28
##  2 2020.txt dream           18
##  3 2020.txt constitution    17
##  4 2021.txt burden          15
##  5 2021.txt port            15
##  6 2021.txt economic        14
##  7 2021.txt freedom         14
##  8 2021.txt people          14
##  9 2021.txt choice          13
## 10 2021.txt dignity         13
## # ... with 1,831 more rows
…
Left join

The function merges the two tables with matching words.

Madaraka_Speech_join = left_join(Madaraka_Speech_tidy, total_words)

## Joining, by = "doc_id"

Madaraka_Speech_join

## # A tibble: 1,841 x 4
##    doc_id   word             n total
##    <chr>    <chr>        <int> <int>
##  1 2021.txt kisumu          28  1837
##  2 2020.txt dream           18  1402
##  3 2020.txt constitution    17  1402
##  4 2021.txt burden          15  1837
##  5 2021.txt port            15  1837
##  6 2021.txt economic        14  1837
##  7 2021.txt freedom         14  1837
##  8 2021.txt people          14  1837
##  9 2021.txt choice          13  1837
## 10 2021.txt dignity         13  1837
## # ... with 1,831 more rows

Term Frequency

Madaraka_Speech_freq = Madaraka_Speech_join %>% mutate(rank = row_number(),tf = n/total)
Madaraka_Speech_freq

## # A tibble: 1,841 x 6
##    doc_id   word             n total  rank      tf
##    <chr>    <chr>        <int> <int> <int>   <dbl>
##  1 2021.txt kisumu          28  1837     1 0.0152 
##  2 2020.txt dream           18  1402     2 0.0128 
##  3 2020.txt constitution    17  1402     3 0.0121 
##  4 2021.txt burden          15  1837     4 0.00817
##  5 2021.txt port            15  1837     5 0.00817
##  6 2021.txt economic        14  1837     6 0.00762
##  7 2021.txt freedom         14  1837     7 0.00762
##  8 2021.txt people          14  1837     8 0.00762
##  9 2021.txt choice          13  1837     9 0.00708
## 10 2021.txt dignity         13  1837    10 0.00708
## # ... with 1,831 more rows

bind tf-idf function

Speech_words_2020 = Madaraka_Speech_join %>%
  bind_tf_idf(word, doc_id , n) %>% arrange(desc(tf_idf))
Speech_words_2020 %>% filter(doc_id == "2020.txt")

## # A tibble: 862 x 7
##    doc_id   word            n total      tf   idf  tf_idf
##    <chr>    <chr>       <int> <int>   <dbl> <dbl>   <dbl>
##  1 2020.txt culture         7  1402 0.00499 0.693 0.00346
##  2 2020.txt pandemic        7  1402 0.00499 0.693 0.00346
##  3 2020.txt book            6  1402 0.00428 0.693 0.00297
##  4 2020.txt called          6  1402 0.00428 0.693 0.00297
##  5 2020.txt coronavirus     6  1402 0.00428 0.693 0.00297
##  6 2020.txt dreams          6  1402 0.00428 0.693 0.00297
##  7 2020.txt faith           5  1402 0.00357 0.693 0.00247
##  8 2020.txt households      5  1402 0.00357 0.693 0.00247
##  9 2020.txt published       5  1402 0.00357 0.693 0.00247
## 10 2020.txt act             4  1402 0.00285 0.693 0.00198
## # ... with 852 more rows

Speech_words_2021 = Madaraka_Speech_join %>%
  bind_tf_idf(word, doc_id , n) %>% arrange(desc(tf_idf))
Speech_words_2021 %>% filter(doc_id == "2021.txt")

## # A tibble: 979 x 7
##    doc_id   word              n total      tf   idf  tf_idf
##    <chr>    <chr>         <int> <int>   <dbl> <dbl>   <dbl>
##  1 2021.txt burden           15  1837 0.00817 0.693 0.00566
##  2 2021.txt choice           13  1837 0.00708 0.693 0.00491
##  3 2021.txt road             11  1837 0.00599 0.693 0.00415
##  4 2021.txt bbi              10  1837 0.00544 0.693 0.00377
##  5 2021.txt choices          10  1837 0.00544 0.693 0.00377
##  6 2021.txt judiciary         9  1837 0.00490 0.693 0.00340
##  7 2021.txt dialysis          8  1837 0.00435 0.693 0.00302
##  8 2021.txt fuel              7  1837 0.00381 0.693 0.00264
##  9 2021.txt month             7  1837 0.00381 0.693 0.00264
## 10 2021.txt opportunities     7  1837 0.00381 0.693 0.00264
## # ... with 969 more rows

Where: 1. n is the number of times the word is appears in the speech. 2. total is the total number of words in the speech. 3. The words with the highest frequency are the stop words.

6: Sentiment Analysis/Opinion Mining

Get the relevant dictionaries for Sentiment Analysis

get_sentiments("afinn")

## # A tibble: 2,477 x 2
##    word       value
##    <chr>      <dbl>
##  1 abandon       -2
##  2 abandoned     -2
##  3 abandons      -2
##  4 abducted      -2
##  5 abduction     -2
##  6 abductions    -2
##  7 abhor         -3
##  8 abhorred      -3
##  9 abhorrent     -3
## 10 abhors        -3
## # ... with 2,467 more rows

get_sentiments("bing")

## # A tibble: 6,786 x 2
##    word        sentiment
##    <chr>       <chr>    
##  1 2-faces     negative 
##  2 abnormal    negative 
##  3 abolish     negative 
##  4 abominable  negative 
##  5 abominably  negative 
##  6 abominate   negative 
##  7 abomination negative 
##  8 abort       negative 
##  9 aborted     negative 
## 10 aborts      negative 
## # ... with 6,776 more rows

get_sentiments("nrc")

## # A tibble: 13,901 x 2
##    word        sentiment
##    <chr>       <chr>    
##  1 abacus      trust    
##  2 abandon     fear     
##  3 abandon     negative 
##  4 abandon     sadness  
##  5 abandoned   anger    
##  6 abandoned   fear     
##  7 abandoned   negative 
##  8 abandoned   sadness  
##  9 abandonment anger    
## 10 abandonment fear     
## # ... with 13,891 more rows

Get the sentiments expressed in the speech.

Sentiments = Speech %>% tibble() %>% 
  unnest_tokens(word, text) %>% 
  anti_join(stop_words) %>% group_by(doc_id) %>% inner_join(get_sentiments("bing"))

## Joining, by = "word"
## Joining, by = "word"

Sentiments

## # A tibble: 417 x 3
## # Groups:   doc_id [2]
##    doc_id   word        sentiment
##    <chr>    <chr>       <chr>    
##  1 2020.txt celebration positive 
##  2 2020.txt unable      negative 
##  3 2020.txt celebrate   positive 
##  4 2020.txt celebrate   positive 
##  5 2020.txt salute      positive 
##  6 2020.txt happy       positive 
##  7 2020.txt fond        positive 
##  8 2020.txt struggle    negative 
##  9 2020.txt struggle    negative 
## 10 2020.txt defeated    positive 
## # ... with 407 more rows
…
8: Word Frequencies

We analyze the frequently used words in the speech.

Madaraka_Speech_freq %>% count(word, sort = T)

## # A tibble: 1,576 x 2
##    word                 n
##    <chr>            <int>
##  1 achieve              2
##  2 achieved             2
##  3 achievements         2
##  4 action               2
##  5 added                2
##  6 address              2
##  7 administration       2
##  8 administrations     2
##  9 administrations      2
## 10 africa               2
## # ... with 1,566 more rows

2020 Speech

Speech_words_2020 %>% count(word, sort = T)

## # A tibble: 1,576 x 2
##    word                 n
##    <chr>            <int>
##  1 achieve              2
##  2 achieved             2
##  3 achievements         2
##  4 action               2
##  5 added                2
##  6 address              2
##  7 administration       2
##  8 administrations     2
##  9 administrations      2
## 10 africa               2
## # ... with 1,566 more rows

2021 Speech

Speech_words_2021 %>% count(word, sort = T)

## # A tibble: 1,576 x 2
##    word                 n
##    <chr>            <int>
##  1 achieve              2
##  2 achieved             2
##  3 achievements         2
##  4 action               2
##  5 added                2
##  6 address              2
##  7 administration       2
##  8 administrations     2
##  9 administrations      2
## 10 africa               2
## # ... with 1,566 more rows
…
